<?xml version="1.0" encoding="utf-8"?>
<!-- Generator: Adobe Illustrator 23.0.3, SVG Export Plug-In . SVG Version: 6.00 Build 0)  -->
<svg version="1.1" id="OBJECTS" xmlns="http://www.w3.org/2000/svg" xmlns:xlink="http://www.w3.org/1999/xlink" x="0px" y="0px"
	 viewBox="0 0 30 30" style="enable-background:new 0 0 30 30;" xml:space="preserve">
<style type="text/css">
	.st0{fill:#FFFFFF;}
</style>
<title>工作區域 2 複本</title>
<g>
	<g>
		<path class="st0" d="M15,30C6.7,30,0,23.3,0,15c0-4,1.5-7.8,4.4-10.6S11,0,15,0c8.3,0,15,6.7,15,15v0C30,23.3,23.3,30,15,30z
			 M15,1.2c-3.7,0-7.2,1.4-9.8,4.1c-2.6,2.6-4,6.1-4,9.8c0,7.6,6.2,13.8,13.8,13.8S28.8,22.6,28.8,15v0C28.8,7.4,22.6,1.2,15,1.2z"
			/>
	</g>
	<g>
		<rect x="1.3" y="15.1" transform="matrix(0.5231 -0.8522 0.8522 0.5231 -6.1327 20.432)" class="st0" width="27.8" height="1.2"/>
	</g>
</g>
</svg>
