<?xml version="1.0" encoding="utf-8"?>
<!-- Generator: Adobe Illustrator 23.0.3, SVG Export Plug-In . SVG Version: 6.00 Build 0)  -->
<svg version="1.1" id="OBJECTS" xmlns="http://www.w3.org/2000/svg" xmlns:xlink="http://www.w3.org/1999/xlink" x="0px" y="0px"
	 viewBox="0 0 30 30" style="enable-background:new 0 0 30 30;" xml:space="preserve">
<style type="text/css">
	.st0{fill:#FFFFFF;}
</style>
<title>工作區域 2 複本 3</title>
<g>
	<g>
		<polygon class="st0" points="14.3,30 3.9,25.4 3.9,0 14.3,4.6 		"/>
	</g>
	<g>
		<polygon class="st0" points="22,24.3 4.5,24.3 4.5,0.4 22,0.4 22,9 21.4,9 21.4,1 5.1,1 5.1,23.6 21.4,23.6 21.4,18.4 22,18.4 		
			"/>
	</g>
	<g>
		<polygon class="st0" points="24,11.8 21.9,10.2 21.9,12 17.9,12 17.9,14.6 21.9,14.6 21.9,16.5 24,14.9 26.1,13.3 		"/>
	</g>
</g>
</svg>
