<?xml version="1.0" standalone="no"?>
<!DOCTYPE svg PUBLIC "-//W3C//DTD SVG 1.1//EN" "http://www.w3.org/Graphics/SVG/1.1/DTD/svg11.dtd" >
<svg xmlns="http://www.w3.org/2000/svg">
<metadata>Generated by IcoMoon</metadata>
<defs>
<font id="icomoon" horiz-adv-x="1024">
<font-face units-per-em="1024" ascent="960" descent="-64" />
<missing-glyph horiz-adv-x="1024" />
<glyph unicode="&#x20;" horiz-adv-x="512" d="" />
<glyph unicode="&#xe900;" d="M281.135 28.536c-47.001 53.41-94 108.956-123.911 175.184-29.909 70.501-38.455 151.683-23.5 228.592s49.136 149.548 98.274 211.502c-4.272-53.41 14.955-108.956 51.273-149.548-21.365 102.546 12.818 213.639 81.182 294.821s162.366 134.594 260.638 170.912c-49.136-51.273-55.545-132.455-36.318-200.821 19.227-68.364 59.819-128.183 96.137-190.137s70.501-126.046 72.638-196.547c19.227 36.318 40.592 72.638 53.41 113.228 12.818 40.592 19.227 83.319 8.546 123.911 38.455-47.001 59.819-94 70.501-153.82s8.546-121.774 2.137-181.593c-8.546-66.229-25.637-134.592-61.954-190.137-42.727-66.229-111.093-113.228-185.865-138.864-132.459-23.502-262.779-4.274-363.189 83.317z" />
<glyph unicode="&#xe901;" d="M443.501-50.509c175.182-68.366 348.229 138.864 252.092 299.093 0 2.137-2.137 2.137-2.137 4.272 8.546-87.591-12.818-151.683-53.41-188.002 21.365 51.273 6.409 111.093-19.227 162.366-25.637 49.136-61.954 94-89.728 141.001-27.774 49.136-49.136 104.683-36.318 160.229-51.273-38.455-87.591-96.137-102.546-158.092s-6.409-130.32 21.365-188.002c-32.046 23.5-55.545 61.954-57.682 102.546-34.183-40.592-55.545-94-53.41-147.41 0.002-83.319 66.229-158.092 141.003-188z" />
<glyph unicode="&#xe902;" glyph-name="search" d="M990 27.6l-235.6 235.6c58.4 71.2 93.6 162.4 93.6 261.8 0 228-185 413-413 413-228.2 0-413-185-413-413s184.8-413 413-413c99.4 0 190.4 35 261.6 93.4l235.6-235.4c16-16 41.8-16 57.8 0 16 15.8 16 41.8 0 57.6zM435 194.2c-182.6 0-331 148.4-331 330.8s148.4 331 331 331c182.4 0 331-148.6 331-331s-148.6-330.8-331-330.8z" />
<glyph unicode="&#xe903;" glyph-name="crown" d="M1009.962 658.426c-12.096 10.326-29.166 12.502-43.472 5.538l-218.888-106.56-205.384 236.804c-7.596 8.76-18.622 13.792-30.218 13.792s-22.62-5.032-30.218-13.792l-205.384-236.802-218.888 106.56c-14.306 6.962-31.374 4.788-43.474-5.538s-16.932-26.842-12.306-42.062l152-500c5.122-16.85 20.66-28.366 38.27-28.366h640c17.608 0 33.148 11.516 38.268 28.364l152 500c4.628 15.22-0.204 31.736-12.306 42.062zM802.35 168h-580.704l-116.702 383.896 164.044-79.862c16.288-7.928 35.86-3.924 47.726 9.756l195.286 225.16 195.288-225.16c11.864-13.682 31.442-17.682 47.724-9.756l164.044 79.862-116.706-383.896z" />
<glyph unicode="&#xe904;" glyph-name="home" d="M1011.172 459.992c18.562 20.415 16.77 51.705-4.002 69.87l-457.639 400.437c-20.772 18.165-54.075 17.785-74.41-0.858l-459.195-420.928c-20.335-18.643-21.333-49.893-2.21-69.77l11.513-11.99c19.1-19.878 49.973-22.248 68.912-5.277l34.318 30.733v-449.932c0-27.605 22.368-49.953 49.953-49.953h178.995c27.585 0 49.953 22.348 49.953 49.953v314.771h228.311v-314.771c-0.397-27.585 19.34-49.933 46.925-49.933h189.69c27.585 0 49.953 22.348 49.953 49.953v443.577c0 0 9.48-8.305 21.173-18.582 11.673-10.258 36.19-2.033 54.753 18.402l13.008 14.3z" />
<glyph unicode="&#xe905;" glyph-name="favorite" d="M512-23.040l-71.68 71.68c-266.24 235.52-440.32 394.24-440.32 588.8 0 158.72 122.88 281.6 281.6 281.6 87.040 0 174.080-40.96 230.4-107.52 56.32 66.56 143.36 107.52 230.4 107.52 158.72 0 281.6-122.88 281.6-281.6 0-194.56-174.080-353.28-440.32-588.8l-71.68-71.68z" />
<glyph unicode="&#xe906;" glyph-name="message" d="M512 934.4c-282.317 0-512-206.711-512-460.8 0-88.815 28.092-174.848 81.374-249.242-10.086-111.565-37.12-194.389-76.373-233.626-5.188-5.188-6.485-13.124-3.209-19.678 2.901-5.854 8.875-9.455 15.275-9.455 0.785 0 1.57 0.051 2.372 0.171 6.912 0.973 167.475 24.081 283.614 91.119 65.946-26.607 136.192-40.090 208.947-40.090 282.317 0 512 206.711 512 460.8s-229.683 460.8-512 460.8zM273.067 405.333c-37.649 0-68.267 30.618-68.267 68.267s30.618 68.267 68.267 68.267 68.267-30.618 68.267-68.267-30.618-68.267-68.267-68.267zM512 405.333c-37.649 0-68.267 30.618-68.267 68.267s30.618 68.267 68.267 68.267 68.267-30.618 68.267-68.267-30.618-68.267-68.267-68.267zM750.933 405.333c-37.649 0-68.267 30.618-68.267 68.267s30.618 68.267 68.267 68.267 68.267-30.618 68.267-68.267-30.618-68.267-68.267-68.267z" />
<glyph unicode="&#xe907;" glyph-name="member" d="M941.491 151.543l-3.451-4.141c-113.614-136.318-264.948-211.425-426.040-211.425-161.116 0-312.426 75.084-426.064 211.425l-3.427 4.141 0.809 5.307c21.942 143.124 96.717 258.094 210.545 323.802l8.091 4.664 6.449-6.759c53.761-56.402 126.060-87.436 203.572-87.436s149.811 31.057 203.572 87.436l6.449 6.759 8.091-4.664c113.828-65.708 188.603-180.678 210.569-323.802l0.833-5.307zM512 448.595c140.982 0 255.691 114.709 255.691 255.691s-114.709 255.714-255.691 255.714-255.691-114.732-255.691-255.691 114.709-255.714 255.691-255.714z" />
</font></defs></svg>