[
    {
        "index": [
            {
                "title": "",
                "imageUrl": "https://i.ytimg.com/vi/r5xzMFzstG4/maxresdefault.jpg"
            },
            {
                "title": "活動砸大錢拿遊戲幣",
                "imageUrl": "https://picsum.photos/id/600/1200/550"
            },
            {
                "title": "快來玩遊戲當盤子",
                "imageUrl": "https://picsum.photos/id/660/1200/550"
            },
            {
                "title": "喜歡玩就砸錢啊",
                "imageUrl": "https://picsum.photos/id/560/1200/550"
            }
        ]
    }
]